{
  "project_info": {
    "project_number": "1050998526970",
    "project_id": "mapa-533c2",
    "storage_bucket": "mapa-533c2.appspot.com"
  },
  "client": [
    {
      "client_info": {
        "mobilesdk_app_id": "1:1050998526970:android:d7a565575905ece565ca43",
        "android_client_info": {
          "package_name": "com.example.mapassignment"
        }
      },
      "oauth_client": [
        {
          "client_id": "1050998526970-cprhsf57uvt5afs9ppk4ived0mm7j68l.apps.googleusercontent.com",
          "client_type": 3
        }
      ],
      "api_key": [
        {
          "current_key": "AIzaSyDU9kcCXje_Yyc83Uu1P9uDg-lxDiyWam8"
        }
      ],
      "services": {
        "appinvite_service": {
          "other_platform_oauth_client": [
            {
              "client_id": "1050998526970-cprhsf57uvt5afs9ppk4ived0mm7j68l.apps.googleusercontent.com",
              "client_type": 3
            }
          ]
        }
      }
    }
  ],
  "configuration_version": "1"
}